SDS 348: Project 1
…
## # A tibble: 1 x 16
##    beer  wine liquor total_drinks avg_hum_spr avg_hum_sum avg_hum_fall
##   <dbl> <dbl>  <dbl>        <dbl>       <dbl>       <dbl>        <dbl>
## 1  52.8  40.4   59.4         116.        13.5        13.0         16.1
## # … with 9 more variables: avg_hum_wint <dbl>, avg_temp_spr <dbl>,
## #   avg_temp_sum <dbl>, avg_temp_fall <dbl>, avg_temp_wint <dbl>,
## #   avg_precip_spr <dbl>, avg_precip_sum <dbl>, avg_precip_fall <dbl>,
## #   avg_precip_wint <dbl>

# state that drinks the most
proj1 %>% select(state, total_drinks) %>% arrange(desc(total_drinks))

## # A tibble: 50 x 2
##    state         total_drinks
##    <chr>                <dbl>
##  1 New_Hampshire         996.
##  2 Delaware              751.
##  3 Nevada                730.
##  4 North_Dakota          674.
##  5 Montana               661.
##  6 Vermont               653.
##  7 Idaho                 627.
##  8 Wisconsin             625.
##  9 Colorado              614.
## 10 Alaska                608 
## # … with 40 more rows

# state that drinks the least
proj1 %>% select(state, total_drinks) %>% arrange(total_drinks)

## # A tibble: 50 x 2
##    state         total_drinks
##    <chr>                <dbl>
##  1 Utah                  288 
##  2 West_Virginia         371.
##  3 Arkansas              380.
##  4 Oklahoma              395.
##  5 Georgia               405.
##  6 Kansas                410.
##  7 Kentucky              416 
##  8 Alabama               425.
##  9 Ohio                  433.
## 10 Maryland              444.
## # … with 40 more rows

# mutate temperature + New Hampshire's temperature (most
# drinks)
wranglingproj1 %>% mutate(temperatureF = (temperature * 9/5) + 
    32) %>% filter(state == "New_Hampshire") %>% select(temperatureF, 
    season2) %>% arrange(desc(temperatureF))

## # A tibble: 64 x 2
##    temperatureF season2      
##           <dbl> <chr>        
##  1         77.3 avg_temp_fall
##  2         77.3 avg_temp_fall
##  3         77.3 avg_temp_fall
##  4         77.3 avg_temp_fall
##  5         77.3 avg_temp_fall
##  6         77.3 avg_temp_fall
##  7         77.3 avg_temp_fall
##  8         77.3 avg_temp_fall
##  9         77.3 avg_temp_fall
## 10         77.3 avg_temp_fall
## # … with 54 more rows

# mutate temperature + Utah's temperature (least drinks)
wranglingproj1 %>% mutate(temperatureF = (temperature * 9/5) + 
    32) %>% filter(state == "Utah") %>% select(temperatureF, 
    season2) %>% arrange(desc(temperatureF))

## # A tibble: 64 x 2
##    temperatureF season2      
##           <dbl> <chr>        
##  1         67.3 avg_temp_fall
##  2         67.3 avg_temp_fall
##  3         67.3 avg_temp_fall
##  4         67.3 avg_temp_fall
##  5         67.3 avg_temp_fall
##  6         67.3 avg_temp_fall
##  7         67.3 avg_temp_fall
##  8         67.3 avg_temp_fall
##  9         67.3 avg_temp_fall
## 10         67.3 avg_temp_fall
## # … with 54 more rows

# state that drinks the most beer
proj1 %>% select(state, beer) %>% arrange(desc(beer))

## # A tibble: 50 x 2
##    state          beer
##    <chr>         <dbl>
##  1 New_Hampshire  424.
##  2 Montana        379.
##  3 Vermont        363.
##  4 North_Dakota   356.
##  5 South_Dakota   325.
##  6 Nevada         320 
##  7 Maine          318.
##  8 Pennsylvania   306.
##  9 Wisconsin      306.
## 10 Hawaii         303.
## # … with 40 more rows

# state that drinks the most wine
proj1 %>% select(state, wine) %>% arrange(desc(wine))

## # A tibble: 50 x 2
##    state          wine
##    <chr>         <dbl>
##  1 Idaho          240.
##  2 New_Hampshire  167.
##  3 Vermont        155.
##  4 Delaware       143.
##  5 Massachusetts  125.
##  6 California     123.
##  7 Connecticut    119.
##  8 Nevada         119.
##  9 Hawaii         117.
## 10 Oregon         115.
## # … with 40 more rows

# state that drinks the most liquor
proj1 %>% select(state, liquor) %>% arrange(desc(liquor))

## # A tibble: 50 x 2
##    state         liquor
##    <chr>          <dbl>
##  1 New_Hampshire   424.
##  2 Delaware        351.
##  3 Nevada          303.
##  4 North_Dakota    276.
##  5 Alaska          260.
##  6 Wisconsin       260.
##  7 Wyoming         257.
##  8 Colorado        255.
##  9 Minnesota       251.
## 10 Rhode_Island    239.
## # … with 40 more rows
…
# correlation between drinks + humidity, temperature, and
# precipitation
cor2 <- wranglingproj1 %>% select(-state, -year) %>% select_if(is.numeric) %>% 
    cor(use = "pair")
tidycor2 <- cor2 %>% as.data.frame %>% rownames_to_column("var1") %>% 
    pivot_longer(-1, names_to = "var2", values_to = "correlation")
tidycor2

## # A tibble: 49 x 3
##    var1  var2          correlation
##    <chr> <chr>               <dbl>
##  1 beer  beer               1     
##  2 beer  wine               0.121 
##  3 beer  liquor             0.442 
##  4 beer  total_drinks       0.687 
##  5 beer  humidity           0.252 
##  6 beer  temperature        0.0459
##  7 beer  precipitation      0.105 
##  8 wine  beer               0.121 
##  9 wine  wine               1     
## 10 wine  liquor             0.473 
## # … with 39 more rows
…
